\relax 
\citation{DragonBook}
\citation{MechanicsBook}
\citation{LISP}
\citation{PEG}
\citation{zakai2011emscripten}
\citation{MetaII}
\@writefile{toc}{\contentsline {section}{\numberline {1}Brief History}{1}}
\citation{torgersen2007querying}
\citation{Baker:1991:PPC:121983.121984}
\citation{5551015}
\@writefile{toc}{\contentsline {section}{\numberline {2}The Next Big Thing}{3}}
\citation{SM_MOCP}
\citation{bodin1993implementing}
\citation{todter1995parc++}
\citation{an2001stapl}
\citation{bischof2003dattel}
\citation{TranTan2016}
\citation{neumann2011efficiently}
\@writefile{toc}{\contentsline {section}{\numberline {3}Distributed systems }{4}}
\citation{Green:2013:QSQ:2499370.2462177}
\citation{wang_et_al:LIPIcs:2015:5034}
\citation{cohen2010processor}
\@writefile{toc}{\contentsline {section}{\numberline {4}Future Directions: Quantum Hardware}{5}}
\citation{*}
\bibdata{TermPaper}
\bibcite{DragonBook}{Aho et\nobreakspace  {}al., 1988}
\bibcite{an2001stapl}{An et\nobreakspace  {}al., 2001}
\bibcite{Baker:1991:PPC:121983.121984}{Baker, 1991}
\bibcite{bischof2003dattel}{Bischof et\nobreakspace  {}al., 2003}
\bibcite{bodin1993implementing}{Bodin et\nobreakspace  {}al., 1993}
\bibcite{cohen2010processor}{Cohen and Rohou, 2010}
\bibcite{PEG}{Ford, 2004}
\bibcite{Green:2013:QSQ:2499370.2462177}{Green et\nobreakspace  {}al., 2013}
\bibcite{MetaII}{Neighbors, 2015}
\bibcite{neumann2011efficiently}{Neumann, 2011}
\@writefile{toc}{\contentsline {section}{\numberline {5}References}{6}}
\bibcite{MechanicsBook}{Parsons, 1992}
\bibcite{LISP}{Queinnec, 1994}
\bibcite{todter1995parc++}{T{\"o}dter et\nobreakspace  {}al., 1995}
\bibcite{torgersen2007querying}{Torgersen, 2007}
\bibcite{TranTan2016}{Tran\nobreakspace  {}Tan et\nobreakspace  {}al., 2016}
\bibcite{SM_MOCP}{Tullsen et\nobreakspace  {}al., 1995}
\bibcite{5551015}{Wampler and Clark, 2010}
\bibcite{wang_et_al:LIPIcs:2015:5034}{Wang et\nobreakspace  {}al., 2015}
\bibcite{zakai2011emscripten}{Zakai, 2011}
\bibstyle{apalike}
